{
	"Header: BITS": {
		"description": "CPU Word Length: HASM assumes that the target CPU uses the same word length for everything. Defaults to 8.",
		"prefix": [
			"bits",
			"header-bits"
		],
		"body": "bits ${1|==,>=,<=|} ${2:8}$0"
	},
	"Header: MINHEAP": {
		"description": "Minimum Heap Space: The minimum number of words that the Heap must be able to hold in order to run a program. Defaults to 16.",
		"prefix": [
			"minheap",
			"header-minheap"
	],
		"body": "minheap ${1:16}$0"
	},
	"Header: MINREG": {
		"description": "Minimum Number of Registers: The number of registers that can be used is fixed and each program needs to specify the minimum number of general purpose registers it requires. Defaults to 8.",
		"prefix": [
			"minreg",
			"header-minreg"
		],
		"body": "minreg ${1:8}$0"
	},
	"Header: MINSTACK": {
		"description": "Minimum Stack Size: The minimum number of words that the stack must be able to hold in order to run a program. Defaults to 8.",
		"prefix": [
			"minstack",
			"header-minstack"
		],
		"body": "minstack ${1:8}$0"
	},
	"Header: RUN": {
		"description": "Instruction Storage Architecture: Instructions can be stored in the same RAM space as the program runs in OR in a seperate ROM space which the program cannot write to. Defaults to ROM.",
		"prefix": [
			"run",
			"header-run"
		],
		"body": "run ${1|ROM,RAM|}$0"
	},
	"Macro: DEFINE": {
		"description": "Define Macro: Declare a program constant during program assembly. Every instance of name will be replaced by the corresponding value.",
		"prefix": [
			"define",
			"@define",
			"macro-define"
		],
		"body": "@define ${1:name} ${2:value}$0"
	},
	"Macro: INCLUDE": {
		"description": "Include Macro: Include code from a file or a library at the location of the include macro.",
		"prefix": [
			"include",
			"@include",
			"macro-include"
		],
		"body": "@include ${1:filename}$0"
	},
	"Defined Immediate: BITS": {
		"description": "Defined Immediate: The value of the bits header (CPU Word Length).",
		"prefix": [
			"#bits",
			"bits",
			"defined-bits"
		],
		"body": "#bits$0"
	},
	"Defined Immediate: MINHEAP": {
		"description": "Defined Immediate: The value of the minheap header (Minimum Heap Space).",
		"prefix": [
			"#minheap",
			"minheap",
			"defined-minheap"
		],
		"body": "#minheap$0"
	},
	"Defined Immediate: MINREG": {
		"description": "Defined Immediate: The value of the minreg header (Minimum Number of Registers).",
		"prefix": [
			"#minreg",
			"minreg",
			"defined-minreg"
		],
		"body": "#minreg$0"
	},
	"Defined Immediate: MINSTACK": {
		"description": "Defined Immediate: The value of the minstack header (Minimum Stack Size).",
		"prefix": [
			"#minstack",
			"minstack",
			"defined-minstack"
		],
		"body": "#minstack$0"
	},
	"Defined Immediate: HEAP": {
		"description": "Defined Immediate: The maximum size of the heap, occupying all space in the RAM.",
		"prefix": [
			"#heap",
			"heap",
			"defined-heap"
		],
		"body": "#heap$0"
	},
	"Defined Immediate: MSB": {
		"description": "Defined Immediate: A binary value with only the most significant bit active.",
		"prefix": [
			"#msb",
			"msb",
			"defined-msb"
		],
		"body": "#msb$0"
	},
	"Defined Immediate: SMSB": {
		"description": "Defined Immediate: A binary value with only the second most significant bit active.",
		"prefix": [
			"#smsb",
			"smsb",
			"defined-smsb"
		],
		"body": "#smsb$0"
	},
	"Defined Immediate: MAX": {
		"description": "Defined Immediate: A binary value with all bits active.",
		"prefix": [
			"#max",
			"max",
			"defined-max"
		],
		"body": "#max$0"
	},
	"Defined Immediate: SMAX": {
		"description": "Defined Immediate: A binary value with all bits active except the most significant bit.",
		"prefix": [
			"#smax",
			"smax",
			"defined-smax"
		],
		"body": "#smax$0"
	},
	"Defined Immediate: UHALF": {
		"description": "Defined Immediate: A binary value with the upper half of the bits active.",
		"prefix": [
			"#uhalf",
			"uhalf",
			"defined-uhalf"
		],
		"body": "#uhalf$0"
	},
	"Defined Immediate: LHALF": {
		"description": "Defined Immediate: A binary value with the lower half of the bits active.",
		"prefix": [
			"#lhalf",
			"lhalf",
			"defined-lhalf"
		],
		"body": "#lhalf$0"
	}
}