{
	"$schema": "https://raw.githubusercontent.com/martinring/tmlanguage/master/tmlanguage.json",
	"name": "Hadron Assembly Language",
	"scopeName": "source.hasm",
	"patterns": [
		{ "include": "#comment-block"	},
		{ "include": "#comment-line"	},
		{ "include": "#preprocessor"	},
		{ "include": "#preprocessor-run"},
		{ "include": "#instruction"		},
		{ "include": "#comparison"		},
		{ "include": "#register"		},
		{ "include": "#memory"			},
		{ "include": "#instruction??"	},
		{ "include": "#variable"		},
		{ "include": "#numeric"			},
		{ "include": "#string"			},
		{ "include": "#label"			},
		{ "include": "#subroutine"		},
		{ "include": "#macro"			},
		{ "include": "#port"			},
		{ "include": "#defined-imm"		},
		{ "include": "#char"			},
		{ "include": "#comma"			},
		{ "include": "#invalid"			}
	],
	"repository": {
		"comment-block": {
			"begin": "/\\*",
			"end": "\\*/",
			"name": "comment",
			"contentName": "comment"
		},
		"comment-line": {
			"match": "//.*$",
			"name": "comment"
		},
		"preprocessor": {
			"match": "\\b(?i:bits|min(?:heap|reg|stack))\\b",
			"name": "keyword.control"
		},
		"preprocessor-run": {
			"match": "\\b(?i:run|r[oa]m)\\b",
			"name": "keyword.control"
		},
		"instruction": {
			"patterns": [
				{
					"match": "\\b(?i:abs|add|and|call|cmp|cp|dec|div|dw|hlt|imm|in|inc|int|iret|j(?:e|g|ge|l|le|mp|ne|nz|pe|po|z)|ldi|llod|lod|lsh|lsto|mlt|mod|mov|nand|neg|nop|nor|not|or|out|pause|pop|popf|psh|pshf|ret|rsh|sto|sub|test|wait|xnor|xor)\\b",
					"name": "keyword"
				},
				{
					"match": "(?<=^\\s*)[a-zA-Z]\\w*(?=\\s+)",
					"name": "keyword markup.italic"
				}
			]
		},
		"comparison": {
			"match": "(?<!\\S)[=<>]=?(?!\\S)",
			"name": "keyword.operator.comparison"
		},
		"register": {
			"patterns": [
				{
					"match": "(?<!\\w)([$Rr]\\d+)\\b",
					"name": "entity.name.function"
				},
				{
					"match": "\\b(?i:pc|sp)\\b",
					"name": "support.class"
				}
			]
		},
		"variable": {
			"match": "(?<=[]\\[()\\s<>,])[A-Za-z_]\\w*(?=[]\\[()\\s<>;,])",
			"captures": {
				"0": { "name": "constant.other" },
				"1": { "name": "invalid markup.underline" }
			}
		},
		"numeric": {
			"match": "(?<!\\w)(?:~?[-+])?(?:0(?:x(.*?)|b(.*?))|(\\d.*?))\\b",
			"captures": {
				"0": { "name": "constant.numeric" },
				"1": { "patterns": [ { "include": "#hexadecimal" }, { "include": "#underscore" }, { "include": "#invalid-illegal" } ] },
				"2": { "patterns": [ { "include": "#binary"		 }, { "include": "#underscore" }, { "include": "#invalid-illegal" } ] },
				"3": { "patterns": [ { "include": "#decimal"	 }, { "include": "#underscore" }, { "include": "#invalid-illegal" } ] }
			}
		},
		"hexadecimal": {
			"match": "\\h+",
			"name": "constant.numeric.hexadecimal"
		},
		"binary": {
			"match": "[01]+",
			"name": "constant.numeric.binary"
		},
		"decimal": {
			"match": "\\d+",
			"name": "constant.numeric.decimal"
		},
		"underscore": {
			"match": "_+",
			"name": "constant.numeric"
		},
		"memory": {
			"match": "(?<!\\w)[mM]\\d+\\b",
			"name": "support.class"
		},
		"string": {
			"match": "\".*?\"",
			"name": "string"
		},
		"char": {
			"match": "'(?>(\\\\(?>u\\h{,4}|.))|.)?(.*?)'",
			"captures": {
				"0": { "name": "string" },
				"1": { "name": "constant.character.escape" },
				"2": { "name": "invalid markup.underline" }
			}
		},
		"label": {
			"match": "(?<!\\w)\\.\\w*+(?!\\:)",
			"name": "support.function"
		},
		"subroutine": {
			"match": "(?<!\\w)\\.\\w+\\:",
			"name": "support.class"
		},
		"macro": {
			"match": "(?<!\\w)@\\w+\\b",
			"name": "keyword.operator"
		},
		"port": {
			"match": "%(?i:(ASCII7?|BIN|BUFFER|BUS|CHAR[56]|COLOR|CPUBUS|DATA|FIXED|FLOAT|[GMNST](?:1[0-6]|\\d)|HEX|INSTR|N?ADDR|NLEG|NOTE|NUMB|PAGE|PROFILE|RNG|SPECIAL|SUPPORTED|TEXT|UD(?:1[0-6]|\\d)|U?INT|UTF8|WAIT|X|Y)|\\w+)\\b",
			"captures": {
				"0": { "name": "support.class" }
			}
		},
		"defined-imm": {
			"patterns": [
				{
					"match": "#(?i:bits|s?m(ax|sb)|[ul]half|min?(heap|reg|stack)|heap)\\b",
					"name": "support.class"
				},
				{
					"match": "#\\w+\\b",
					"name": "invalid"
				}
			]
		},
		"comma": {
			"match": ",",
			"name": "punctuation.separator"
		},
		"invalid": {
			"match": "[^\\w\\s][^]\\[()\\w\\s\"/@$#;<>+=~.'-]*",
			"name": "invalid"
		},
		"invalid-illegal": {
			"match": "\\S",
			"name": "invalid.illegal markup.underline"
		}
	}
}